# BLASTX 2.2.28+
# Query: DAT3_DAT3_sample_2005213 DAT3_sample_2005213
# Database: /scratch/lfs/schamala/MarkerMiner_new/markerminer/Resources/Athaliana/proteome.ath.tfa_db
# Fields: query id, subject id, % identity, alignment length, mismatches, gap opens, q. start, q. end, s. start, s. end, evalue, bit score, query length, subject length, positives, % positives, % hsp coverage, % subject coverage, query/sbjct frames
# 17 hits found
DAT3_DAT3_sample_2005213	AT3G24190	77.86	813	140	8	2566	191	1	794	0.0	1251	2760	794	706	86.84	86	86	-3/0
DAT3_DAT3_sample_2005213	AT1G79600	44.52	465	249	5	2152	776	95	556	6e-127	 403	2760	712	299	64.30	50	50	-3/0
DAT3_DAT3_sample_2005213	AT1G71810	35.84	692	357	18	2185	191	62	693	8e-123	 392	2760	693	383	55.35	72	72	-3/0
DAT3_DAT3_sample_2005213	AT4G31390	38.53	462	267	6	2104	740	131	582	2e-97	 323	2760	683	264	57.14	49	49	-3/0
DAT3_DAT3_sample_2005213	AT5G24970	36.45	513	280	8	1999	539	175	667	4e-97	 325	2760	762	285	55.56	53	53	-3/0
DAT3_DAT3_sample_2005213	AT2G39190	34.38	480	288	6	2161	794	142	618	2e-80	 280	2760	815	250	52.08	50	50	-3/0
DAT3_DAT3_sample_2005213	AT3G07700	33.41	434	237	10	2041	872	171	596	3e-54	 201	2760	725	212	48.85	42	42	-3/0
DAT3_DAT3_sample_2005213	AT5G64940	33.98	415	232	9	1987	860	222	633	1e-53	 199	2760	762	209	50.36	41	41	-3/0
DAT3_DAT3_sample_2005213	AT5G05200	26.24	404	257	7	2077	959	109	502	1e-33	 136	2760	541	184	45.54	41	41	-3/0
DAT3_DAT3_sample_2005213	AT4G24810	26.63	383	250	13	2017	935	59	432	1e-29	 124	2760	482	188	49.09	39	39	-3/0
DAT3_DAT3_sample_2005213	AT5G50330	25.32	395	257	13	1978	872	71	453	8e-26	 112	2760	480	187	47.34	40	40	-3/0
DAT3_DAT3_sample_2005213	AT1G65950	27.90	362	225	14	1954	935	113	460	2e-21	99.4	2760	552	160	44.20	37	37	-3/0
DAT3_DAT3_sample_2005213	AT2G40090	29.72	323	188	11	2023	1145	79	392	3e-21	98.6	2760	539	149	46.13	32	32	-3/0
DAT3_DAT3_sample_2005213	AT1G61640	25.94	293	184	7	1987	1199	213	502	4e-19	92.4	2760	622	122	41.64	29	29	-3/0
DAT3_DAT3_sample_2005213	AT1G11390	25.52	286	187	5	1963	1181	224	508	1e-18	90.5	2760	625	116	40.56	28	28	-3/0
DAT3_DAT3_sample_2005213	AT5G24810	25.79	349	198	12	2041	1142	90	426	5e-18	89.4	2760	1041	146	41.83	33	33	-3/0
DAT3_DAT3_sample_2005213	AT4G01660	25.85	294	178	10	1957	1139	238	512	1e-13	74.7	2760	624	131	44.56	30	30	-3/0
# BLASTX 2.2.28+
# Query: DAT3_DAT3_sample_2006542 DAT3_sample_2006542
# Database: /scratch/lfs/schamala/MarkerMiner_new/markerminer/Resources/Athaliana/proteome.ath.tfa_db
# Fields: query id, subject id, % identity, alignment length, mismatches, gap opens, q. start, q. end, s. start, s. end, evalue, bit score, query length, subject length, positives, % positives, % hsp coverage, % subject coverage, query/sbjct frames
# 2 hits found
DAT3_DAT3_sample_2006542	AT3G56940	84.40	359	51	2	1210	149	1	359	0.0	 602	1308	410	320	89.14	81	92	-3/0
DAT3_DAT3_sample_2006542	AT3G56940	67.86	56	18	0	173	6	355	410	4e-09	58.2	1308	410	46	82.14	13	92	-2/0
# BLASTX 2.2.28+
# Query: DAT3_DAT3_sample_2006714 DAT3_sample_2006714
# Database: /scratch/lfs/schamala/MarkerMiner_new/markerminer/Resources/Athaliana/proteome.ath.tfa_db
# Fields: query id, subject id, % identity, alignment length, mismatches, gap opens, q. start, q. end, s. start, s. end, evalue, bit score, query length, subject length, positives, % positives, % hsp coverage, % subject coverage, query/sbjct frames
# 29 hits found
DAT3_DAT3_sample_2006714	AT5G60360	55.83	120	52	1	810	454	24	143	1e-36	 136	909	362	87	72.50	39	39	-1/0
DAT3_DAT3_sample_2006714	AT3G45310	50.00	120	59	1	810	454	24	143	8e-34	 128	909	359	89	74.17	39	39	-1/0
DAT3_DAT3_sample_2006714	AT4G35350	36.43	129	70	3	750	400	29	157	1e-12	67.8	909	356	68	52.71	39	39	-1/0
DAT3_DAT3_sample_2006714	AT1G20850	43.21	81	38	1	738	520	33	113	2e-11	63.9	909	357	48	59.26	24	24	-1/0
DAT3_DAT3_sample_2006714	AT4G11310	40.00	90	53	1	786	517	24	112	4e-10	60.1	909	365	50	55.56	30	30	-1/0
DAT3_DAT3_sample_2006714	AT1G47128	30.77	130	83	4	792	424	20	149	1e-09	58.9	909	463	69	53.08	41	41	-1/0
DAT3_DAT3_sample_2006714	AT5G43060	60.42	48	19	0	660	517	70	117	1e-09	58.9	909	464	33	68.75	16	16	-1/0
DAT3_DAT3_sample_2006714	AT4G11320	42.42	66	38	0	714	517	54	119	4e-09	57.0	909	372	41	62.12	22	22	-1/0
DAT3_DAT3_sample_2006714	AT3G43960	41.54	65	37	1	708	517	41	105	6e-09	56.2	909	377	44	67.69	21	21	-1/0
DAT3_DAT3_sample_2006714	AT4G23520	36.36	99	59	2	708	424	47	145	5e-08	53.5	909	357	51	51.52	31	31	-1/0
DAT3_DAT3_sample_2006714	AT2G21430	41.76	91	48	2	777	520	20	110	1e-07	52.8	909	362	46	50.55	28	28	-1/0
DAT3_DAT3_sample_2006714	AT3G19390	39.68	63	37	1	708	523	43	105	2e-07	52.0	909	453	41	65.08	20	20	-1/0
DAT3_DAT3_sample_2006714	AT4G36880	38.37	86	43	2	651	424	72	157	2e-07	51.6	909	377	47	54.65	25	25	-1/0
DAT3_DAT3_sample_2006714	AT1G09850	40.62	64	37	1	708	520	32	95	7e-07	50.1	909	438	38	59.38	21	21	-1/0
DAT3_DAT3_sample_2006714	AT5G45890	33.33	78	50	1	699	472	41	118	8e-07	49.7	909	347	46	58.97	25	25	-1/0
DAT3_DAT3_sample_2006714	AT4G39090	41.98	81	42	2	747	520	33	113	9e-07	49.7	909	369	41	50.62	25	25	-1/0
DAT3_DAT3_sample_2006714	AT4G16190	38.38	99	54	2	816	520	26	117	2e-06	48.5	909	374	48	48.48	33	33	-1/0
DAT3_DAT3_sample_2006714	AT5G50260	42.11	57	33	0	687	517	44	100	2e-06	48.5	909	362	34	59.65	19	19	-1/0
DAT3_DAT3_sample_2006714	AT3G19400	35.38	65	41	1	714	523	42	106	8e-06	46.6	909	363	42	64.62	21	21	-1/0
DAT3_DAT3_sample_2006714	AT2G27420	40.32	62	36	1	702	520	37	98	1e-05	46.2	909	349	37	59.68	20	20	-1/0
DAT3_DAT3_sample_2006714	AT1G29080	40.32	62	36	1	702	520	41	102	3e-05	44.7	909	347	37	59.68	20	20	-1/0
DAT3_DAT3_sample_2006714	AT1G29090	40.32	62	36	1	702	520	49	110	5e-05	44.3	909	356	35	56.45	20	20	-1/0
DAT3_DAT3_sample_2006714	AT3G48340	38.60	57	35	0	687	517	44	100	6e-05	43.9	909	362	35	61.40	19	19	-1/0
DAT3_DAT3_sample_2006714	AT3G49340	41.94	62	35	1	702	520	37	98	1e-04	43.1	909	342	35	56.45	20	20	-1/0
DAT3_DAT3_sample_2006714	AT2G34080	42.86	56	31	1	702	538	41	96	3e-04	41.6	909	346	33	58.93	18	18	-1/0
DAT3_DAT3_sample_2006714	AT3G54940	38.46	65	40	0	708	514	51	115	5e-04	41.2	909	368	31	47.69	21	21	-1/0
DAT3_DAT3_sample_2006714	AT1G29110	41.51	53	30	1	675	520	49	101	0.003	38.9	909	335	30	56.60	17	17	-1/0
DAT3_DAT3_sample_2006714	AT1G06260	34.92	63	41	0	708	520	43	105	0.005	38.1	909	344	33	52.38	21	21	-1/0
DAT3_DAT3_sample_2006714	AT3G48350	33.33	57	38	0	687	517	44	100	0.007	37.7	909	365	29	50.88	19	19	-1/0
# BLASTX 2.2.28+
# Query: DAT3_DAT3_sample_2014202 DAT3_sample_2014202
# Database: /scratch/lfs/schamala/MarkerMiner_new/markerminer/Resources/Athaliana/proteome.ath.tfa_db
# Fields: query id, subject id, % identity, alignment length, mismatches, gap opens, q. start, q. end, s. start, s. end, evalue, bit score, query length, subject length, positives, % positives, % hsp coverage, % subject coverage, query/sbjct frames
# 23 hits found
DAT3_DAT3_sample_2014202	AT5G61510	81.58	342	56	1	227	1231	65	406	0.0	 578	1437	407	304	88.89	70	70	2/0
DAT3_DAT3_sample_2014202	AT4G21580	31.69	325	216	4	263	1225	1	323	2e-36	 138	1437	326	159	48.92	67	67	2/0
DAT3_DAT3_sample_2014202	AT3G56460	30.69	303	204	4	341	1234	38	339	2e-25	 107	1437	349	148	48.84	62	62	2/0
DAT3_DAT3_sample_2014202	AT1G49670	30.34	323	186	9	374	1240	327	644	6e-23	 102	1437	653	141	43.65	60	60	2/0
DAT3_DAT3_sample_2014202	AT3G15090	26.45	344	217	11	266	1225	33	364	8e-16	79.0	1437	367	150	43.60	67	67	2/0
DAT3_DAT3_sample_2014202	AT1G23740	27.38	347	208	12	233	1231	68	384	4e-15	76.6	1437	387	155	44.67	70	70	2/0
DAT3_DAT3_sample_2014202	AT5G63620	31.76	170	112	4	533	1033	197	365	9e-11	63.5	1437	428	84	49.41	35	35	2/0
DAT3_DAT3_sample_2014202	AT5G37940	27.55	196	121	5	434	985	80	266	9e-09	57.0	1437	354	83	42.35	38	38	2/0
DAT3_DAT3_sample_2014202	AT5G37980	29.75	121	84	1	626	985	146	266	1e-08	56.6	1437	354	60	49.59	25	25	2/0
DAT3_DAT3_sample_2014202	AT5G16960	25.73	241	153	8	419	1090	68	299	2e-08	56.2	1437	347	104	43.15	47	47	2/0
DAT3_DAT3_sample_2014202	AT1G65560	27.17	184	123	4	431	958	73	253	3e-08	55.5	1437	351	81	44.02	37	37	2/0
DAT3_DAT3_sample_2014202	AT4G13010	24.78	339	228	10	257	1231	4	329	4e-08	54.7	1437	330	139	41.00	68	68	2/0
DAT3_DAT3_sample_2014202	AT1G26320	24.70	247	148	7	311	958	16	255	5e-07	51.6	1437	352	98	39.68	45	45	2/0
DAT3_DAT3_sample_2014202	AT5G16970	30.00	200	121	7	419	985	67	258	5e-07	51.6	1437	346	85	42.50	39	39	2/0
DAT3_DAT3_sample_2014202	AT5G16990	28.93	121	85	1	626	985	136	256	3e-06	48.9	1437	344	56	46.28	25	25	2/0
DAT3_DAT3_sample_2014202	AT5G16980	28.93	121	85	1	626	985	98	218	3e-06	48.5	1437	306	56	46.28	25	25	2/0
DAT3_DAT3_sample_2014202	AT3G59845	28.57	119	84	1	632	985	143	261	4e-06	48.9	1437	347	56	47.06	25	25	2/0
DAT3_DAT3_sample_2014202	AT1G22440	33.33	105	67	2	254	565	11	113	2e-05	46.2	1437	387	51	48.57	22	22	2/0
DAT3_DAT3_sample_2014202	AT1G77120	36.90	84	51	1	263	514	10	91	2e-05	46.2	1437	380	43	51.19	18	18	2/0
DAT3_DAT3_sample_2014202	AT5G43940	38.81	67	41	0	314	514	37	103	7e-05	45.1	1437	392	34	50.75	14	14	2/0
DAT3_DAT3_sample_2014202	AT1G22430	34.88	86	52	2	299	553	26	108	2e-04	43.1	1437	389	43	50.00	18	18	2/0
DAT3_DAT3_sample_2014202	AT5G42250	32.18	87	57	1	254	514	16	100	0.006	38.9	1437	391	40	45.98	18	18	2/0
DAT3_DAT3_sample_2014202	AT4G22110	31.65	79	53	1	299	532	27	105	0.009	38.1	1437	390	39	49.37	16	16	2/0
# BLASTX 2.2.28+
# Query: DAT3_DAT3_sample_2096952 DAT3_sample_2096952
# Database: /scratch/lfs/schamala/MarkerMiner_new/markerminer/Resources/Athaliana/proteome.ath.tfa_db
# Fields: query id, subject id, % identity, alignment length, mismatches, gap opens, q. start, q. end, s. start, s. end, evalue, bit score, query length, subject length, positives, % positives, % hsp coverage, % subject coverage, query/sbjct frames
# 8 hits found
DAT3_DAT3_sample_2096952	AT5G64370	83.93	392	63	0	142	1317	16	407	0.0	 694	1650	409	365	93.11	71	71	1/0
DAT3_DAT3_sample_2096952	AT2G27450	28.83	274	173	7	457	1251	60	320	2e-20	92.8	1650	327	127	46.35	48	48	1/0
DAT3_DAT3_sample_2096952	AT5G12040	23.81	273	169	10	460	1239	112	358	1e-10	63.2	1650	370	114	41.76	47	47	1/0
DAT3_DAT3_sample_2096952	AT5G22300	24.19	310	195	11	361	1230	35	324	2e-07	52.8	1650	356	123	39.68	53	53	1/0
DAT3_DAT3_sample_2096952	AT3G44300	24.02	358	201	11	361	1347	17	332	1e-06	50.4	1650	340	131	36.59	60	60	1/0
DAT3_DAT3_sample_2096952	AT3G44320	24.62	333	183	11	364	1275	25	318	2e-06	50.1	1650	347	124	37.24	55	55	1/0
DAT3_DAT3_sample_2096952	AT4G08790	23.17	259	166	10	457	1203	60	295	9e-06	47.8	1650	308	108	41.70	45	45	1/0
DAT3_DAT3_sample_2096952	AT3G44310	23.40	282	167	9	544	1347	93	339	0.002	40.4	1650	347	106	37.59	49	49	1/0
# BLASTX 2.2.28+
# Query: DAT3_DAT3_sample_2097319 DAT3_sample_2097319
# Database: /scratch/lfs/schamala/MarkerMiner_new/markerminer/Resources/Athaliana/proteome.ath.tfa_db
# Fields: query id, subject id, % identity, alignment length, mismatches, gap opens, q. start, q. end, s. start, s. end, evalue, bit score, query length, subject length, positives, % positives, % hsp coverage, % subject coverage, query/sbjct frames
# 17 hits found
DAT3_DAT3_sample_2097319	AT3G07700	73.41	741	143	11	2379	271	1	725	0.0	1077	2783	725	614	82.86	76	76	-3/0
DAT3_DAT3_sample_2097319	AT5G64940	46.53	591	277	7	1941	274	171	757	2e-174	 529	2783	762	385	65.14	60	60	-3/0
DAT3_DAT3_sample_2097319	AT1G79600	33.33	432	274	6	1947	658	106	525	6e-69	 245	2783	712	243	56.25	46	46	-3/0
DAT3_DAT3_sample_2097319	AT5G24970	33.91	404	237	5	1821	673	170	564	7e-66	 236	2783	762	210	51.98	41	41	-3/0
DAT3_DAT3_sample_2097319	AT1G71810	35.98	378	224	5	1797	682	120	485	3e-65	 234	2783	693	215	56.88	40	40	-3/0
DAT3_DAT3_sample_2097319	AT3G24190	34.41	401	246	6	1842	658	177	566	5e-57	 210	2783	794	198	49.38	43	43	-3/0
DAT3_DAT3_sample_2097319	AT4G31390	32.29	384	252	5	1797	658	167	546	2e-52	 196	2783	683	197	51.30	41	41	-3/0
DAT3_DAT3_sample_2097319	AT2G39190	32.07	396	244	6	1788	658	202	591	4e-51	 193	2783	815	196	49.49	41	41	-3/0
DAT3_DAT3_sample_2097319	AT5G50330	30.47	384	247	9	1767	658	75	452	5e-38	 149	2783	480	188	48.96	40	40	-3/0
DAT3_DAT3_sample_2097319	AT1G65950	29.18	305	202	5	1848	946	87	381	6e-38	 150	2783	552	161	52.79	32	32	-3/0
DAT3_DAT3_sample_2097319	AT4G24810	26.97	445	303	8	1944	658	14	452	6e-37	 146	2783	482	204	45.84	46	46	-3/0
DAT3_DAT3_sample_2097319	AT5G24810	27.54	374	210	7	1896	931	60	424	5e-35	 144	2783	1041	176	47.06	35	35	-3/0
DAT3_DAT3_sample_2097319	AT5G05200	25.51	392	263	5	1791	697	128	517	2e-33	 136	2783	541	182	46.43	39	39	-3/0
DAT3_DAT3_sample_2097319	AT2G40090	28.90	301	192	4	1800	952	88	384	3e-33	 135	2783	539	151	50.17	31	31	-3/0
DAT3_DAT3_sample_2097319	AT1G11390	28.70	324	199	8	1764	874	224	542	1e-30	 128	2783	625	151	46.60	32	32	-3/0
DAT3_DAT3_sample_2097319	AT1G61640	26.30	327	211	7	1788	880	213	533	6e-27	 117	2783	622	148	45.26	33	33	-3/0
DAT3_DAT3_sample_2097319	AT4G01660	27.78	288	198	5	1752	895	240	519	6e-20	94.7	2783	624	136	47.22	31	31	-3/0
# BLASTX 2.2.28+
# Query: DAT3_DAT3_sample_2005214 DAT3_sample_2005214
# Database: /scratch/lfs/schamala/MarkerMiner_new/markerminer/Resources/Athaliana/proteome.ath.tfa_db
# Fields: query id, subject id, % identity, alignment length, mismatches, gap opens, q. start, q. end, s. start, s. end, evalue, bit score, query length, subject length, positives, % positives, % hsp coverage, % subject coverage, query/sbjct frames
# 17 hits found
DAT3_DAT3_sample_2005214	AT3G24190	77.76	814	140	9	2569	191	1	794	0.0	1246	2763	794	706	86.73	86	86	-3/0
DAT3_DAT3_sample_2005214	AT1G79600	44.42	466	249	6	2155	776	95	556	4e-125	 398	2763	712	299	64.16	50	50	-3/0
DAT3_DAT3_sample_2005214	AT1G71810	35.79	693	357	19	2188	191	62	693	8e-121	 386	2763	693	382	55.12	72	72	-3/0
DAT3_DAT3_sample_2005214	AT4G31390	38.44	463	267	7	2107	740	131	582	1e-95	 319	2763	683	264	57.02	50	50	-3/0
DAT3_DAT3_sample_2005214	AT5G24970	36.38	514	280	9	2002	539	175	667	2e-95	 320	2763	762	285	55.45	53	53	-3/0
DAT3_DAT3_sample_2005214	AT2G39190	34.30	481	288	7	2164	794	142	618	1e-78	 275	2763	815	250	51.98	50	50	-3/0
DAT3_DAT3_sample_2005214	AT3G07700	33.33	435	237	11	2044	872	171	596	1e-52	 196	2763	725	212	48.74	42	42	-3/0
DAT3_DAT3_sample_2005214	AT5G64940	33.89	416	232	10	1990	860	222	633	5e-52	 195	2763	762	209	50.24	41	41	-3/0
DAT3_DAT3_sample_2005214	AT5G05200	26.60	406	254	9	2080	959	109	502	2e-32	 133	2763	541	186	45.81	41	41	-3/0
DAT3_DAT3_sample_2005214	AT4G24810	26.56	384	250	14	2020	935	59	432	4e-28	 119	2763	482	188	48.96	39	39	-3/0
DAT3_DAT3_sample_2005214	AT5G50330	25.76	396	255	14	1981	872	71	453	1e-24	 108	2763	480	186	46.97	40	40	-3/0
DAT3_DAT3_sample_2005214	AT2G40090	30.25	324	186	12	2026	1145	79	392	4e-20	95.1	2763	539	149	45.99	32	32	-3/0
DAT3_DAT3_sample_2005214	AT1G65950	27.35	362	228	14	1957	935	113	460	2e-19	92.8	2763	552	158	43.65	37	37	-3/0
DAT3_DAT3_sample_2005214	AT1G61640	25.34	296	183	8	1990	1199	213	502	1e-18	90.5	2763	622	125	42.23	29	29	-3/0
DAT3_DAT3_sample_2005214	AT1G11390	25.09	291	183	6	1966	1181	224	508	5e-18	89.0	2763	625	118	40.55	28	28	-3/0
DAT3_DAT3_sample_2005214	AT5G24810	25.71	350	198	12	2044	1142	90	426	8e-18	89.0	2763	1041	146	41.71	33	33	-3/0
DAT3_DAT3_sample_2005214	AT4G01660	25.76	295	178	11	1960	1139	238	512	4e-12	70.1	2763	624	131	44.41	30	30	-3/0
# BLAST processed 7 queries
